…
# nerfplus_cv works

    Code
      nerfplus_cv_linear_out$best_cv_params
    Output
      # A tibble: 500 x 6
         tree_id lambda_netcoh lambda_embed lambda_raw lambda_stump lambda_l
           <int>         <dbl>        <dbl>      <dbl>        <dbl>    <dbl>
       1       1             2            1          1            1     0.05
       2       2             1            1          2            3     0.05
       3       3             2            1          1            1     0.05
       4       4             2            1          1            1     0.05
       5       5             2            1          1            1     0.05
       6       6             2            1          1            1     0.05
       7       7             2            1          1            1     0.05
       8       8             2            1          1            1     0.05
       9       9             2            1          1            1     0.05
      10      10             1            1          2            3     0.05
      # i 490 more rows

---

    Code
      nerfplus_cv_log_out$best_cv_params
    Output
      # A tibble: 500 x 6
         tree_id lambda_netcoh lambda_embed lambda_raw lambda_stump lambda_l
           <int>         <dbl>        <dbl>      <dbl>        <dbl>    <dbl>
       1       1             1            1          2            1     0.05
       2       2             2            1          1            1     0.05
       3       3             1            1          2            1     0.05
       4       4             1            1          2            1     0.05
       5       5             2            1          1            1     0.05
       6       6             2            1          1            1     0.05
       7       7             1            1          2            1     0.05
       8       8             2            1          1            1     0.05
       9       9             1            1          2            1     0.05
      10      10             1            1          2            1     0.05
      # i 490 more rows
